# Fdb version 3
["pdflatex"] 1662774842 "c:/Users/josep/Documents/projects/tabletop/dcc/pit people/dcc_adventures/bandits_tower/bandits_tower.tex" "bandits_tower.pdf" "bandits_tower" 1662774844
  "bandits_tower.aux" 1662774844 3034 13602f88a3645e176567565ed89249fe "pdflatex"
  "bandits_tower.tex" 1662774840 60461 77cbe06126fcf222e45041f0d08a14db ""
  "c:/Users/josep/Documents/projects/tabletop/dcc/pit people/dcc_adventures/bandits_tower/bandits_tower.tex" 1662774840 60461 77cbe06126fcf222e45041f0d08a14db ""
  "c:/texlive/2021/texmf-dist/fonts/enc/dvips/cm-super/cm-super-ts1.enc" 1631771230 2900 1537cc8184ad1792082cd229ecc269f4 ""
  "c:/texlive/2021/texmf-dist/fonts/map/fontname/texfonts.map" 1631772101 3524 cb3e574dea2d1052e39280babc910dc8 ""
  "c:/texlive/2021/texmf-dist/fonts/tfm/jknappen/ec/tcrm1000.tfm" 1631771732 1536 e07581a4bb3136ece9eeb4c3ffab8233 ""
  "c:/texlive/2021/texmf-dist/fonts/tfm/public/cm/cmbx10.tfm" 1631771222 1328 c834bbb027764024c09d3d2bf908b5f0 ""
  "c:/texlive/2021/texmf-dist/fonts/tfm/public/cm/cmbx12.tfm" 1631771222 1324 c910af8c371558dc20f2d7822f66fe64 ""
  "c:/texlive/2021/texmf-dist/fonts/tfm/public/cm/cmmi12.tfm" 1631771222 1524 4414a8315f39513458b80dfc63bff03a ""
  "c:/texlive/2021/texmf-dist/fonts/tfm/public/cm/cmmi6.tfm" 1631771222 1512 f21f83efb36853c0b70002322c1ab3ad ""
  "c:/texlive/2021/texmf-dist/fonts/tfm/public/cm/cmmi8.tfm" 1631771222 1520 eccf95517727cb11801f4f1aee3a21b4 ""
  "c:/texlive/2021/texmf-dist/fonts/tfm/public/cm/cmr12.tfm" 1631771222 1288 655e228510b4c2a1abe905c368440826 ""
  "c:/texlive/2021/texmf-dist/fonts/tfm/public/cm/cmr17.tfm" 1631771222 1292 296a67155bdbfc32aa9c636f21e91433 ""
  "c:/texlive/2021/texmf-dist/fonts/tfm/public/cm/cmr6.tfm" 1631771222 1300 b62933e007d01cfd073f79b963c01526 ""
  "c:/texlive/2021/texmf-dist/fonts/tfm/public/cm/cmr8.tfm" 1631771222 1292 21c1c5bfeaebccffdb478fd231a0997d ""
  "c:/texlive/2021/texmf-dist/fonts/tfm/public/cm/cmsy10.tfm" 1631771222 1124 6c73e740cf17375f03eec0ee63599741 ""
  "c:/texlive/2021/texmf-dist/fonts/tfm/public/cm/cmsy6.tfm" 1631771222 1116 933a60c408fc0a863a92debe84b2d294 ""
  "c:/texlive/2021/texmf-dist/fonts/tfm/public/cm/cmsy8.tfm" 1631771222 1120 8b7d695260f3cff42e636090a8002094 ""
  "c:/texlive/2021/texmf-dist/fonts/tfm/public/cm/cmti10.tfm" 1631771222 1480 aa8e34af0eb6a2941b776984cf1dfdc4 ""
  "c:/texlive/2021/texmf-dist/fonts/type1/public/amsfonts/cm/cmbx10.pfb" 1631770523 34811 78b52f49e893bcba91bd7581cdc144c0 ""
  "c:/texlive/2021/texmf-dist/fonts/type1/public/amsfonts/cm/cmbx12.pfb" 1631770523 32080 340ef9bf63678554ee606688e7b5339d ""
  "c:/texlive/2021/texmf-dist/fonts/type1/public/amsfonts/cm/cmr10.pfb" 1631770523 35752 024fb6c41858982481f6968b5fc26508 ""
  "c:/texlive/2021/texmf-dist/fonts/type1/public/amsfonts/cm/cmr12.pfb" 1631770523 32722 d7379af29a190c3f453aba36302ff5a9 ""
  "c:/texlive/2021/texmf-dist/fonts/type1/public/amsfonts/cm/cmr17.pfb" 1631770523 32362 bc3f3eec7ab7d65fe700963d4017d32c ""
  "c:/texlive/2021/texmf-dist/fonts/type1/public/amsfonts/cm/cmti10.pfb" 1631770523 37944 359e864bd06cde3b1cf57bb20757fb06 ""
  "c:/texlive/2021/texmf-dist/fonts/type1/public/cm-super/sfrm1000.pfb" 1631771231 138258 6525c253f16cededa14c7fd0da7f67b2 ""
  "c:/texlive/2021/texmf-dist/tex/context/base/mkii/supp-pdf.mkii" 1631775502 71627 94eb9990bed73c364d7f53f960cc8c5b ""
  "c:/texlive/2021/texmf-dist/tex/generic/iftex/iftex.sty" 1631772523 6501 4011d89d9621e0b0901138815ba5ff29 ""
  "c:/texlive/2021/texmf-dist/tex/generic/iftex/ifvtex.sty" 1631772523 1057 525c2192b5febbd8c1f662c9468335bb ""
  "c:/texlive/2021/texmf-dist/tex/latex/base/article.cls" 1631774928 20144 0fe9067680219956678b52f12bdce8ee ""
  "c:/texlive/2021/texmf-dist/tex/latex/base/size10.clo" 1631774928 8448 05e1c6a8fc5db344ed9d7aeb299acbce ""
  "c:/texlive/2021/texmf-dist/tex/latex/blindtext/blindtext.sty" 1631770968 47295 de48b7f8ebf4b54709a2f6b2c7106dd5 ""
  "c:/texlive/2021/texmf-dist/tex/latex/colortbl/colortbl.sty" 1631771298 10793 d0af3aa11e27ae35ba4685b17597b122 ""
  "c:/texlive/2021/texmf-dist/tex/latex/epstopdf-pkg/epstopdf-base.sty" 1631771841 13886 d1306dcf79a944f6988e688c1785f9ce ""
  "c:/texlive/2021/texmf-dist/tex/latex/geometry/geometry.sty" 1631772204 41601 9cf6c5257b1bc7af01a58859749dd37a ""
  "c:/texlive/2021/texmf-dist/tex/latex/graphics-cfg/color.cfg" 1631772303 1213 620bba36b25224fa9b7e1ccb4ecb76fd ""
  "c:/texlive/2021/texmf-dist/tex/latex/graphics-cfg/graphics.cfg" 1631772303 1224 978390e9c2234eab29404bc21b268d1e ""
  "c:/texlive/2021/texmf-dist/tex/latex/graphics-def/pdftex.def" 1631772303 19103 48d29b6e2a64cb717117ef65f107b404 ""
  "c:/texlive/2021/texmf-dist/tex/latex/graphics/color.sty" 1631772301 7153 17c23e5e586ebbdf5d269e7867e53cef ""
  "c:/texlive/2021/texmf-dist/tex/latex/graphics/graphics.sty" 1631772301 18399 7e40f80366dffb22c0e7b70517db5cb4 ""
  "c:/texlive/2021/texmf-dist/tex/latex/graphics/graphicx.sty" 1631772301 7972 81ea1752666dc7c1e93f0b4c10665ca1 ""
  "c:/texlive/2021/texmf-dist/tex/latex/graphics/keyval.sty" 1631772301 2671 4de6781a30211fe0ea4c672e4a2a8166 ""
  "c:/texlive/2021/texmf-dist/tex/latex/graphics/trig.sty" 1631772301 4007 3bccccf8f35e1bc1ef0f7c55ceeb7713 ""
  "c:/texlive/2021/texmf-dist/tex/latex/l3backend/l3backend-pdftex.def" 1631774900 27662 df2ac0cbce6c3f309d48d78e7c627ccb ""
  "c:/texlive/2021/texmf-dist/tex/latex/latexconfig/epstopdf-sys.cfg" 1631774984 678 4792914a8f45be57bb98413425e4c7af ""
  "c:/texlive/2021/texmf-dist/tex/latex/tools/array.sty" 1631777097 12689 a1a7b2795918756dcb9c9cbfacc4d9c7 ""
  "c:/texlive/2021/texmf-dist/tex/latex/tools/longtable.sty" 1631777097 12794 d3a5e8c5c13abec21072716a49f17eb5 ""
  "c:/texlive/2021/texmf-dist/tex/latex/tools/multicol.sty" 1631777097 31530 f9ba11d1c179e918d577463ebdb887ca ""
  "c:/texlive/2021/texmf-dist/tex/latex/tools/xspace.sty" 1631777097 4545 d84d0b20a11b9c36c6ecf45697be591c ""
  "c:/texlive/2021/texmf-dist/tex/latex/xcolor/xcolor.sty" 1631777418 55589 34128738f682d033422ca125f82e5d62 ""
  "c:/texlive/2021/texmf-dist/web2c/texmf.cnf" 1631774876 40042 fe981136cbb5f3715ab1b0e46e3d3892 ""
  "c:/texlive/2021/texmf-var/fonts/map/pdftex/updmap/pdftex.map" 1631777594 4399729 18ed533a8f4d45b66bb90cf34d67041b ""
  "c:/texlive/2021/texmf-var/web2c/pdftex/pdflatex.fmt" 1631777656 2797790 81b3ffe37a458735e803145bccf2b481 ""
  "c:/texlive/2021/texmf.cnf" 1631777570 713 e69b156964470283e0530f5060668171 ""
  "imgs/3_the_keep.png" 1633131574 1313301 0d206b9416a413dba5544d3f0be15adf ""
  "imgs/minotaur_maze.png" 1637968822 25658 9ec884e41671682c7e291996816172b8 ""
  "imgs/minotaur_maze_solution.png" 1637968856 33263 881bfcadcdf399d3418524beb0a013e7 ""
  (generated)
  "bandits_tower.log"
  "bandits_tower.aux"
  "bandits_tower.pdf"
