PWD c:/Users/josep/Documents/projects/tabletop/dcc/pit people/dcc_adventures/bandits_tower
INPUT c:/texlive/2021/texmf.cnf
INPUT c:/texlive/2021/texmf-dist/web2c/texmf.cnf
INPUT c:/texlive/2021/texmf-var/web2c/pdftex/pdflatex.fmt
INPUT c:/Users/josep/Documents/projects/tabletop/dcc/pit people/dcc_adventures/bandits_tower/bandits_tower.tex
OUTPUT bandits_tower.log
INPUT c:/texlive/2021/texmf-dist/tex/latex/base/article.cls
INPUT c:/texlive/2021/texmf-dist/tex/latex/base/article.cls
INPUT c:/texlive/2021/texmf-dist/tex/latex/base/article.cls
INPUT c:/texlive/2021/texmf-dist/tex/latex/base/article.cls
INPUT c:/texlive/2021/texmf-dist/tex/latex/base/article.cls
INPUT c:/texlive/2021/texmf-dist/tex/latex/base/article.cls
INPUT c:/texlive/2021/texmf-dist/tex/latex/base/article.cls
INPUT c:/texlive/2021/texmf-dist/tex/latex/base/article.cls
INPUT c:/texlive/2021/texmf-dist/tex/latex/base/article.cls
INPUT c:/texlive/2021/texmf-dist/tex/latex/base/article.cls
INPUT c:/texlive/2021/texmf-dist/tex/latex/base/article.cls
INPUT c:/texlive/2021/texmf-dist/tex/latex/base/size10.clo
INPUT c:/texlive/2021/texmf-dist/tex/latex/base/size10.clo
INPUT c:/texlive/2021/texmf-dist/tex/latex/base/size10.clo
INPUT c:/texlive/2021/texmf-dist/tex/latex/base/size10.clo
INPUT c:/texlive/2021/texmf-dist/tex/latex/blindtext/blindtext.sty
INPUT c:/texlive/2021/texmf-dist/tex/latex/blindtext/blindtext.sty
INPUT c:/texlive/2021/texmf-dist/tex/latex/blindtext/blindtext.sty
INPUT c:/texlive/2021/texmf-dist/tex/latex/blindtext/blindtext.sty
INPUT c:/texlive/2021/texmf-dist/tex/latex/blindtext/blindtext.sty
INPUT c:/texlive/2021/texmf-dist/tex/latex/blindtext/blindtext.sty
INPUT c:/texlive/2021/texmf-dist/tex/latex/blindtext/blindtext.sty
INPUT c:/texlive/2021/texmf-dist/tex/latex/blindtext/blindtext.sty
INPUT c:/texlive/2021/texmf-dist/tex/latex/blindtext/blindtext.sty
INPUT c:/texlive/2021/texmf-dist/tex/latex/blindtext/blindtext.sty
INPUT c:/texlive/2021/texmf-dist/tex/latex/blindtext/blindtext.sty
INPUT c:/texlive/2021/texmf-dist/tex/latex/tools/xspace.sty
INPUT c:/texlive/2021/texmf-dist/tex/latex/tools/xspace.sty
INPUT c:/texlive/2021/texmf-dist/tex/latex/tools/xspace.sty
INPUT c:/texlive/2021/texmf-dist/tex/latex/tools/xspace.sty
INPUT c:/texlive/2021/texmf-dist/tex/latex/tools/xspace.sty
INPUT c:/texlive/2021/texmf-dist/tex/latex/tools/xspace.sty
INPUT c:/texlive/2021/texmf-dist/tex/latex/tools/xspace.sty
INPUT c:/texlive/2021/texmf-dist/tex/latex/tools/xspace.sty
INPUT c:/texlive/2021/texmf-dist/tex/latex/tools/xspace.sty
INPUT c:/texlive/2021/texmf-dist/tex/latex/tools/xspace.sty
INPUT c:/texlive/2021/texmf-dist/tex/latex/tools/xspace.sty
INPUT c:/texlive/2021/texmf-dist/tex/latex/geometry/geometry.sty
INPUT c:/texlive/2021/texmf-dist/tex/latex/geometry/geometry.sty
INPUT c:/texlive/2021/texmf-dist/tex/latex/geometry/geometry.sty
INPUT c:/texlive/2021/texmf-dist/tex/latex/geometry/geometry.sty
INPUT c:/texlive/2021/texmf-dist/tex/latex/geometry/geometry.sty
INPUT c:/texlive/2021/texmf-dist/tex/latex/geometry/geometry.sty
INPUT c:/texlive/2021/texmf-dist/tex/latex/geometry/geometry.sty
INPUT c:/texlive/2021/texmf-dist/tex/latex/geometry/geometry.sty
INPUT c:/texlive/2021/texmf-dist/tex/latex/geometry/geometry.sty
INPUT c:/texlive/2021/texmf-dist/tex/latex/geometry/geometry.sty
INPUT c:/texlive/2021/texmf-dist/tex/latex/geometry/geometry.sty
INPUT c:/texlive/2021/texmf-dist/tex/latex/graphics/keyval.sty
INPUT c:/texlive/2021/texmf-dist/tex/latex/graphics/keyval.sty
INPUT c:/texlive/2021/texmf-dist/tex/latex/graphics/keyval.sty
INPUT c:/texlive/2021/texmf-dist/tex/latex/graphics/keyval.sty
INPUT c:/texlive/2021/texmf-dist/tex/latex/graphics/keyval.sty
INPUT c:/texlive/2021/texmf-dist/tex/latex/graphics/keyval.sty
INPUT c:/texlive/2021/texmf-dist/tex/latex/graphics/keyval.sty
INPUT c:/texlive/2021/texmf-dist/tex/latex/graphics/keyval.sty
INPUT c:/texlive/2021/texmf-dist/tex/latex/graphics/keyval.sty
INPUT c:/texlive/2021/texmf-dist/tex/latex/graphics/keyval.sty
INPUT c:/texlive/2021/texmf-dist/tex/latex/graphics/keyval.sty
INPUT c:/texlive/2021/texmf-dist/tex/generic/iftex/ifvtex.sty
INPUT c:/texlive/2021/texmf-dist/tex/generic/iftex/ifvtex.sty
INPUT c:/texlive/2021/texmf-dist/tex/generic/iftex/ifvtex.sty
INPUT c:/texlive/2021/texmf-dist/tex/generic/iftex/ifvtex.sty
INPUT c:/texlive/2021/texmf-dist/tex/generic/iftex/ifvtex.sty
INPUT c:/texlive/2021/texmf-dist/tex/generic/iftex/ifvtex.sty
INPUT c:/texlive/2021/texmf-dist/tex/generic/iftex/ifvtex.sty
INPUT c:/texlive/2021/texmf-dist/tex/generic/iftex/ifvtex.sty
INPUT c:/texlive/2021/texmf-dist/tex/generic/iftex/ifvtex.sty
INPUT c:/texlive/2021/texmf-dist/tex/generic/iftex/ifvtex.sty
INPUT c:/texlive/2021/texmf-dist/tex/generic/iftex/ifvtex.sty
INPUT c:/texlive/2021/texmf-dist/tex/generic/iftex/iftex.sty
INPUT c:/texlive/2021/texmf-dist/tex/generic/iftex/iftex.sty
INPUT c:/texlive/2021/texmf-dist/tex/generic/iftex/iftex.sty
INPUT c:/texlive/2021/texmf-dist/tex/generic/iftex/iftex.sty
INPUT c:/texlive/2021/texmf-dist/tex/generic/iftex/iftex.sty
INPUT c:/texlive/2021/texmf-dist/tex/generic/iftex/iftex.sty
INPUT c:/texlive/2021/texmf-dist/tex/generic/iftex/iftex.sty
INPUT c:/texlive/2021/texmf-dist/tex/generic/iftex/iftex.sty
INPUT c:/texlive/2021/texmf-dist/tex/generic/iftex/iftex.sty
INPUT c:/texlive/2021/texmf-dist/tex/generic/iftex/iftex.sty
INPUT c:/texlive/2021/texmf-dist/tex/generic/iftex/iftex.sty
INPUT c:/texlive/2021/texmf-dist/tex/latex/graphics/graphicx.sty
INPUT c:/texlive/2021/texmf-dist/tex/latex/graphics/graphicx.sty
INPUT c:/texlive/2021/texmf-dist/tex/latex/graphics/graphicx.sty
INPUT c:/texlive/2021/texmf-dist/tex/latex/graphics/graphicx.sty
INPUT c:/texlive/2021/texmf-dist/tex/latex/graphics/graphicx.sty
INPUT c:/texlive/2021/texmf-dist/tex/latex/graphics/graphicx.sty
INPUT c:/texlive/2021/texmf-dist/tex/latex/graphics/graphicx.sty
INPUT c:/texlive/2021/texmf-dist/tex/latex/graphics/graphicx.sty
INPUT c:/texlive/2021/texmf-dist/tex/latex/graphics/graphicx.sty
INPUT c:/texlive/2021/texmf-dist/tex/latex/graphics/graphicx.sty
INPUT c:/texlive/2021/texmf-dist/tex/latex/graphics/graphicx.sty
INPUT c:/texlive/2021/texmf-dist/tex/latex/graphics/keyval.sty
INPUT c:/texlive/2021/texmf-dist/tex/latex/graphics/graphics.sty
INPUT c:/texlive/2021/texmf-dist/tex/latex/graphics/graphics.sty
INPUT c:/texlive/2021/texmf-dist/tex/latex/graphics/graphics.sty
INPUT c:/texlive/2021/texmf-dist/tex/latex/graphics/graphics.sty
INPUT c:/texlive/2021/texmf-dist/tex/latex/graphics/graphics.sty
INPUT c:/texlive/2021/texmf-dist/tex/latex/graphics/graphics.sty
INPUT c:/texlive/2021/texmf-dist/tex/latex/graphics/graphics.sty
INPUT c:/texlive/2021/texmf-dist/tex/latex/graphics/graphics.sty
INPUT c:/texlive/2021/texmf-dist/tex/latex/graphics/graphics.sty
INPUT c:/texlive/2021/texmf-dist/tex/latex/graphics/graphics.sty
INPUT c:/texlive/2021/texmf-dist/tex/latex/graphics/graphics.sty
INPUT c:/texlive/2021/texmf-dist/tex/latex/graphics/trig.sty
INPUT c:/texlive/2021/texmf-dist/tex/latex/graphics/trig.sty
INPUT c:/texlive/2021/texmf-dist/tex/latex/graphics/trig.sty
INPUT c:/texlive/2021/texmf-dist/tex/latex/graphics/trig.sty
INPUT c:/texlive/2021/texmf-dist/tex/latex/graphics/trig.sty
INPUT c:/texlive/2021/texmf-dist/tex/latex/graphics/trig.sty
INPUT c:/texlive/2021/texmf-dist/tex/latex/graphics/trig.sty
INPUT c:/texlive/2021/texmf-dist/tex/latex/graphics/trig.sty
INPUT c:/texlive/2021/texmf-dist/tex/latex/graphics/trig.sty
INPUT c:/texlive/2021/texmf-dist/tex/latex/graphics/trig.sty
INPUT c:/texlive/2021/texmf-dist/tex/latex/graphics/trig.sty
INPUT c:/texlive/2021/texmf-dist/tex/latex/graphics-cfg/graphics.cfg
INPUT c:/texlive/2021/texmf-dist/tex/latex/graphics-cfg/graphics.cfg
INPUT c:/texlive/2021/texmf-dist/tex/latex/graphics-cfg/graphics.cfg
INPUT c:/texlive/2021/texmf-dist/tex/latex/graphics-cfg/graphics.cfg
INPUT c:/texlive/2021/texmf-dist/tex/latex/graphics-def/pdftex.def
INPUT c:/texlive/2021/texmf-dist/tex/latex/graphics-def/pdftex.def
INPUT c:/texlive/2021/texmf-dist/tex/latex/graphics-def/pdftex.def
INPUT c:/texlive/2021/texmf-dist/tex/latex/graphics-def/pdftex.def
INPUT c:/texlive/2021/texmf-dist/tex/latex/tools/longtable.sty
INPUT c:/texlive/2021/texmf-dist/tex/latex/tools/longtable.sty
INPUT c:/texlive/2021/texmf-dist/tex/latex/tools/longtable.sty
INPUT c:/texlive/2021/texmf-dist/tex/latex/tools/longtable.sty
INPUT c:/texlive/2021/texmf-dist/tex/latex/tools/longtable.sty
INPUT c:/texlive/2021/texmf-dist/tex/latex/tools/longtable.sty
INPUT c:/texlive/2021/texmf-dist/tex/latex/tools/longtable.sty
INPUT c:/texlive/2021/texmf-dist/tex/latex/tools/longtable.sty
INPUT c:/texlive/2021/texmf-dist/tex/latex/tools/longtable.sty
INPUT c:/texlive/2021/texmf-dist/tex/latex/tools/longtable.sty
INPUT c:/texlive/2021/texmf-dist/tex/latex/tools/longtable.sty
INPUT c:/texlive/2021/texmf-dist/tex/latex/tools/multicol.sty
INPUT c:/texlive/2021/texmf-dist/tex/latex/tools/multicol.sty
INPUT c:/texlive/2021/texmf-dist/tex/latex/tools/multicol.sty
INPUT c:/texlive/2021/texmf-dist/tex/latex/tools/multicol.sty
INPUT c:/texlive/2021/texmf-dist/tex/latex/tools/multicol.sty
INPUT c:/texlive/2021/texmf-dist/tex/latex/tools/multicol.sty
INPUT c:/texlive/2021/texmf-dist/tex/latex/tools/multicol.sty
INPUT c:/texlive/2021/texmf-dist/tex/latex/tools/multicol.sty
INPUT c:/texlive/2021/texmf-dist/tex/latex/tools/multicol.sty
INPUT c:/texlive/2021/texmf-dist/tex/latex/tools/multicol.sty
INPUT c:/texlive/2021/texmf-dist/tex/latex/tools/multicol.sty
INPUT c:/texlive/2021/texmf-dist/tex/latex/xcolor/xcolor.sty
INPUT c:/texlive/2021/texmf-dist/tex/latex/xcolor/xcolor.sty
INPUT c:/texlive/2021/texmf-dist/tex/latex/xcolor/xcolor.sty
INPUT c:/texlive/2021/texmf-dist/tex/latex/xcolor/xcolor.sty
INPUT c:/texlive/2021/texmf-dist/tex/latex/xcolor/xcolor.sty
INPUT c:/texlive/2021/texmf-dist/tex/latex/xcolor/xcolor.sty
INPUT c:/texlive/2021/texmf-dist/tex/latex/xcolor/xcolor.sty
INPUT c:/texlive/2021/texmf-dist/tex/latex/xcolor/xcolor.sty
INPUT c:/texlive/2021/texmf-dist/tex/latex/xcolor/xcolor.sty
INPUT c:/texlive/2021/texmf-dist/tex/latex/xcolor/xcolor.sty
INPUT c:/texlive/2021/texmf-dist/tex/latex/xcolor/xcolor.sty
INPUT c:/texlive/2021/texmf-dist/tex/latex/graphics-cfg/color.cfg
INPUT c:/texlive/2021/texmf-dist/tex/latex/graphics-cfg/color.cfg
INPUT c:/texlive/2021/texmf-dist/tex/latex/graphics-cfg/color.cfg
INPUT c:/texlive/2021/texmf-dist/tex/latex/graphics-cfg/color.cfg
INPUT c:/texlive/2021/texmf-dist/tex/latex/colortbl/colortbl.sty
INPUT c:/texlive/2021/texmf-dist/tex/latex/colortbl/colortbl.sty
INPUT c:/texlive/2021/texmf-dist/tex/latex/colortbl/colortbl.sty
INPUT c:/texlive/2021/texmf-dist/tex/latex/colortbl/colortbl.sty
INPUT c:/texlive/2021/texmf-dist/tex/latex/colortbl/colortbl.sty
INPUT c:/texlive/2021/texmf-dist/tex/latex/colortbl/colortbl.sty
INPUT c:/texlive/2021/texmf-dist/tex/latex/colortbl/colortbl.sty
INPUT c:/texlive/2021/texmf-dist/tex/latex/colortbl/colortbl.sty
INPUT c:/texlive/2021/texmf-dist/tex/latex/colortbl/colortbl.sty
INPUT c:/texlive/2021/texmf-dist/tex/latex/colortbl/colortbl.sty
INPUT c:/texlive/2021/texmf-dist/tex/latex/colortbl/colortbl.sty
INPUT c:/texlive/2021/texmf-dist/tex/latex/tools/array.sty
INPUT c:/texlive/2021/texmf-dist/tex/latex/tools/array.sty
INPUT c:/texlive/2021/texmf-dist/tex/latex/tools/array.sty
INPUT c:/texlive/2021/texmf-dist/tex/latex/tools/array.sty
INPUT c:/texlive/2021/texmf-dist/tex/latex/tools/array.sty
INPUT c:/texlive/2021/texmf-dist/tex/latex/tools/array.sty
INPUT c:/texlive/2021/texmf-dist/tex/latex/tools/array.sty
INPUT c:/texlive/2021/texmf-dist/tex/latex/tools/array.sty
INPUT c:/texlive/2021/texmf-dist/tex/latex/tools/array.sty
INPUT c:/texlive/2021/texmf-dist/tex/latex/tools/array.sty
INPUT c:/texlive/2021/texmf-dist/tex/latex/tools/array.sty
INPUT c:/texlive/2021/texmf-dist/tex/latex/graphics/color.sty
INPUT c:/texlive/2021/texmf-dist/tex/latex/l3backend/l3backend-pdftex.def
INPUT c:/texlive/2021/texmf-dist/tex/latex/l3backend/l3backend-pdftex.def
INPUT c:/texlive/2021/texmf-dist/tex/latex/l3backend/l3backend-pdftex.def
INPUT c:/texlive/2021/texmf-dist/tex/latex/l3backend/l3backend-pdftex.def
INPUT c:/texlive/2021/texmf-dist/tex/latex/l3backend/l3backend-pdftex.def
INPUT c:/texlive/2021/texmf-dist/tex/latex/l3backend/l3backend-pdftex.def
INPUT c:/texlive/2021/texmf-dist/tex/latex/l3backend/l3backend-pdftex.def
INPUT c:/texlive/2021/texmf-dist/tex/latex/l3backend/l3backend-pdftex.def
INPUT c:/texlive/2021/texmf-dist/tex/latex/l3backend/l3backend-pdftex.def
INPUT c:/texlive/2021/texmf-dist/tex/latex/l3backend/l3backend-pdftex.def
INPUT c:/texlive/2021/texmf-dist/tex/latex/l3backend/l3backend-pdftex.def
INPUT ./bandits_tower.aux
INPUT bandits_tower.aux
INPUT bandits_tower.aux
OUTPUT bandits_tower.aux
INPUT c:/texlive/2021/texmf-dist/tex/context/base/mkii/supp-pdf.mkii
INPUT c:/texlive/2021/texmf-dist/tex/context/base/mkii/supp-pdf.mkii
INPUT c:/texlive/2021/texmf-dist/tex/context/base/mkii/supp-pdf.mkii
INPUT c:/texlive/2021/texmf-dist/tex/context/base/mkii/supp-pdf.mkii
INPUT c:/texlive/2021/texmf-dist/tex/latex/epstopdf-pkg/epstopdf-base.sty
INPUT c:/texlive/2021/texmf-dist/tex/latex/epstopdf-pkg/epstopdf-base.sty
INPUT c:/texlive/2021/texmf-dist/tex/latex/epstopdf-pkg/epstopdf-base.sty
INPUT c:/texlive/2021/texmf-dist/tex/latex/epstopdf-pkg/epstopdf-base.sty
INPUT c:/texlive/2021/texmf-dist/tex/latex/epstopdf-pkg/epstopdf-base.sty
INPUT c:/texlive/2021/texmf-dist/tex/latex/epstopdf-pkg/epstopdf-base.sty
INPUT c:/texlive/2021/texmf-dist/tex/latex/epstopdf-pkg/epstopdf-base.sty
INPUT c:/texlive/2021/texmf-dist/tex/latex/epstopdf-pkg/epstopdf-base.sty
INPUT c:/texlive/2021/texmf-dist/tex/latex/epstopdf-pkg/epstopdf-base.sty
INPUT c:/texlive/2021/texmf-dist/tex/latex/epstopdf-pkg/epstopdf-base.sty
INPUT c:/texlive/2021/texmf-dist/tex/latex/epstopdf-pkg/epstopdf-base.sty
INPUT c:/texlive/2021/texmf-dist/tex/latex/latexconfig/epstopdf-sys.cfg
INPUT c:/texlive/2021/texmf-dist/tex/latex/latexconfig/epstopdf-sys.cfg
INPUT c:/texlive/2021/texmf-dist/tex/latex/latexconfig/epstopdf-sys.cfg
INPUT c:/texlive/2021/texmf-dist/tex/latex/latexconfig/epstopdf-sys.cfg
INPUT c:/texlive/2021/texmf-dist/fonts/map/fontname/texfonts.map
INPUT c:/texlive/2021/texmf-dist/fonts/tfm/public/cm/cmr17.tfm
INPUT c:/texlive/2021/texmf-dist/fonts/tfm/public/cm/cmr12.tfm
INPUT c:/texlive/2021/texmf-dist/fonts/tfm/public/cm/cmr8.tfm
INPUT c:/texlive/2021/texmf-dist/fonts/tfm/public/cm/cmr6.tfm
INPUT c:/texlive/2021/texmf-dist/fonts/tfm/public/cm/cmmi12.tfm
INPUT c:/texlive/2021/texmf-dist/fonts/tfm/public/cm/cmmi8.tfm
INPUT c:/texlive/2021/texmf-dist/fonts/tfm/public/cm/cmmi6.tfm
INPUT c:/texlive/2021/texmf-dist/fonts/tfm/public/cm/cmsy10.tfm
INPUT c:/texlive/2021/texmf-dist/fonts/tfm/public/cm/cmsy8.tfm
INPUT c:/texlive/2021/texmf-dist/fonts/tfm/public/cm/cmsy6.tfm
OUTPUT bandits_tower.pdf
INPUT c:/texlive/2021/texmf-var/fonts/map/pdftex/updmap/pdftex.map
INPUT c:/texlive/2021/texmf-dist/fonts/tfm/public/cm/cmr12.tfm
INPUT c:/texlive/2021/texmf-dist/fonts/tfm/public/cm/cmbx12.tfm
INPUT c:/texlive/2021/texmf-dist/fonts/tfm/public/cm/cmti10.tfm
INPUT c:/texlive/2021/texmf-dist/fonts/tfm/public/cm/cmbx10.tfm
INPUT c:/texlive/2021/texmf-dist/fonts/tfm/public/cm/cmbx12.tfm
INPUT c:/texlive/2021/texmf-dist/fonts/tfm/jknappen/ec/tcrm1000.tfm
INPUT ./imgs/minotaur_maze.png
INPUT ./imgs/minotaur_maze.png
INPUT imgs/minotaur_maze.png
INPUT ./imgs/minotaur_maze.png
INPUT ./imgs/minotaur_maze.png
INPUT ./imgs/minotaur_maze_solution.png
INPUT ./imgs/minotaur_maze_solution.png
INPUT imgs/minotaur_maze_solution.png
INPUT ./imgs/minotaur_maze_solution.png
INPUT ./imgs/minotaur_maze_solution.png
INPUT ./imgs/3_the_keep.png
INPUT ./imgs/3_the_keep.png
INPUT imgs/3_the_keep.png
INPUT ./imgs/3_the_keep.png
INPUT ./imgs/3_the_keep.png
INPUT bandits_tower.aux
INPUT c:/texlive/2021/texmf-dist/fonts/enc/dvips/cm-super/cm-super-ts1.enc
INPUT c:/texlive/2021/texmf-dist/fonts/type1/public/amsfonts/cm/cmbx10.pfb
INPUT c:/texlive/2021/texmf-dist/fonts/type1/public/amsfonts/cm/cmbx12.pfb
INPUT c:/texlive/2021/texmf-dist/fonts/type1/public/amsfonts/cm/cmr10.pfb
INPUT c:/texlive/2021/texmf-dist/fonts/type1/public/amsfonts/cm/cmr12.pfb
INPUT c:/texlive/2021/texmf-dist/fonts/type1/public/amsfonts/cm/cmr17.pfb
INPUT c:/texlive/2021/texmf-dist/fonts/type1/public/amsfonts/cm/cmti10.pfb
INPUT c:/texlive/2021/texmf-dist/fonts/type1/public/cm-super/sfrm1000.pfb
