\relax 
\@writefile{toc}{\contentsline {section}{\numberline {1}Synopsis}{1}{}\protected@file@percent }
\@writefile{toc}{\contentsline {section}{\numberline {2}Setup}{1}{}\protected@file@percent }
\@writefile{toc}{\contentsline {paragraph}{}{1}{}\protected@file@percent }
\@writefile{toc}{\contentsline {section}{\numberline {3}The Keep}{2}{}\protected@file@percent }
\@writefile{toc}{\contentsline {subsection}{\numberline {3.1}The courtyard}{2}{}\protected@file@percent }
\@writefile{toc}{\contentsline {subsection}{\numberline {3.2}Side path}{2}{}\protected@file@percent }
\@writefile{toc}{\contentsline {subsection}{\numberline {3.3}Caves}{3}{}\protected@file@percent }
\@writefile{toc}{\contentsline {subsection}{\numberline {3.4}Top floor}{3}{}\protected@file@percent }
\@writefile{toc}{\contentsline {subsection}{\numberline {3.5}Ground floor}{3}{}\protected@file@percent }
\@writefile{toc}{\contentsline {subsection}{\numberline {3.6}Side room}{3}{}\protected@file@percent }
\@writefile{toc}{\contentsline {subsection}{\numberline {3.7}Excavation room}{4}{}\protected@file@percent }
\@writefile{toc}{\contentsline {section}{\numberline {4}The Tomb}{4}{}\protected@file@percent }
\@writefile{toc}{\contentsline {subsection}{\numberline {4.1}The Staircase}{4}{}\protected@file@percent }
\@writefile{toc}{\contentsline {paragraph}{}{4}{}\protected@file@percent }
\@writefile{toc}{\contentsline {paragraph}{}{4}{}\protected@file@percent }
\@writefile{toc}{\contentsline {subsection}{\numberline {4.2}The Portal room}{4}{}\protected@file@percent }
\@writefile{toc}{\contentsline {subsection}{\numberline {4.3}The Air Channel}{5}{}\protected@file@percent }
\@writefile{toc}{\contentsline {subsection}{\numberline {4.4}The Water Channel}{5}{}\protected@file@percent }
\gdef \LT@i {\LT@entry 
    {1}{22.80002pt}\LT@entry 
    {1}{112.40015pt}\LT@entry 
    {1}{122.40016pt}\LT@entry 
    {1}{122.40016pt}\LT@entry 
    {1}{122.40016pt}}
\@writefile{toc}{\contentsline {subsection}{\numberline {4.5}The Earth Channel}{6}{}\protected@file@percent }
\@writefile{toc}{\contentsline {subsection}{\numberline {4.6}The Fire Channel}{8}{}\protected@file@percent }
\@writefile{toc}{\contentsline {section}{\numberline {5}The Prison}{9}{}\protected@file@percent }
\@writefile{toc}{\contentsline {subsubsection}{\numberline {5.0.1}Corridor}{9}{}\protected@file@percent }
\@writefile{toc}{\contentsline {subsubsection}{\numberline {5.0.2}Statue Room}{9}{}\protected@file@percent }
\@writefile{toc}{\contentsline {paragraph}{}{10}{}\protected@file@percent }
\@writefile{toc}{\contentsline {subsubsection}{\numberline {5.0.3}Smaller Prison}{10}{}\protected@file@percent }
\@writefile{toc}{\contentsline {section}{\numberline {6}The lair of Hek'sul}{14}{}\protected@file@percent }
\@writefile{toc}{\contentsline {section}{\numberline {7}Images}{17}{}\protected@file@percent }
\@writefile{lof}{\contentsline {figure}{\numberline {1}{\ignorespaces The Keep}}{17}{}\protected@file@percent }
\newlabel{fig:3_the_keep}{{1}{17}}
\gdef \@abspage@last{18}
