PWD c:/Users/josep/Documents/projects/tabletop/dcc/pit people/dcc_adventures/magic items/bag_of_tricks
INPUT c:/texlive/2021/texmf.cnf
INPUT c:/texlive/2021/texmf-dist/web2c/texmf.cnf
INPUT c:/texlive/2021/texmf-var/web2c/pdftex/pdflatex.fmt
INPUT c:/Users/josep/Documents/projects/tabletop/dcc/pit people/dcc_adventures/magic items/bag_of_tricks/bag_of_tricks.tex
OUTPUT bag_of_tricks.log
INPUT c:/texlive/2021/texmf-dist/tex/latex/base/article.cls
INPUT c:/texlive/2021/texmf-dist/tex/latex/base/article.cls
INPUT c:/texlive/2021/texmf-dist/tex/latex/base/article.cls
INPUT c:/texlive/2021/texmf-dist/tex/latex/base/article.cls
INPUT c:/texlive/2021/texmf-dist/tex/latex/base/article.cls
INPUT c:/texlive/2021/texmf-dist/tex/latex/base/article.cls
INPUT c:/texlive/2021/texmf-dist/tex/latex/base/article.cls
INPUT c:/texlive/2021/texmf-dist/tex/latex/base/article.cls
INPUT c:/texlive/2021/texmf-dist/tex/latex/base/article.cls
INPUT c:/texlive/2021/texmf-dist/tex/latex/base/article.cls
INPUT c:/texlive/2021/texmf-dist/tex/latex/base/article.cls
INPUT c:/texlive/2021/texmf-dist/tex/latex/base/size10.clo
INPUT c:/texlive/2021/texmf-dist/tex/latex/base/size10.clo
INPUT c:/texlive/2021/texmf-dist/tex/latex/base/size10.clo
INPUT c:/texlive/2021/texmf-dist/tex/latex/base/size10.clo
INPUT c:/texlive/2021/texmf-dist/tex/latex/l3backend/l3backend-pdftex.def
INPUT c:/texlive/2021/texmf-dist/tex/latex/l3backend/l3backend-pdftex.def
INPUT c:/texlive/2021/texmf-dist/tex/latex/l3backend/l3backend-pdftex.def
INPUT c:/texlive/2021/texmf-dist/tex/latex/l3backend/l3backend-pdftex.def
INPUT c:/texlive/2021/texmf-dist/tex/latex/l3backend/l3backend-pdftex.def
INPUT c:/texlive/2021/texmf-dist/tex/latex/l3backend/l3backend-pdftex.def
INPUT c:/texlive/2021/texmf-dist/tex/latex/l3backend/l3backend-pdftex.def
INPUT c:/texlive/2021/texmf-dist/tex/latex/l3backend/l3backend-pdftex.def
INPUT c:/texlive/2021/texmf-dist/tex/latex/l3backend/l3backend-pdftex.def
INPUT c:/texlive/2021/texmf-dist/tex/latex/l3backend/l3backend-pdftex.def
INPUT c:/texlive/2021/texmf-dist/tex/latex/l3backend/l3backend-pdftex.def
INPUT ./bag_of_tricks.aux
INPUT bag_of_tricks.aux
INPUT bag_of_tricks.aux
OUTPUT bag_of_tricks.aux
INPUT c:/texlive/2021/texmf-dist/fonts/map/fontname/texfonts.map
INPUT c:/texlive/2021/texmf-dist/fonts/tfm/public/cm/cmr12.tfm
INPUT c:/texlive/2021/texmf-dist/fonts/tfm/public/cm/cmbx12.tfm
OUTPUT bag_of_tricks.pdf
INPUT c:/texlive/2021/texmf-var/fonts/map/pdftex/updmap/pdftex.map
INPUT bag_of_tricks.aux
INPUT c:/texlive/2021/texmf-dist/fonts/type1/public/amsfonts/cm/cmbx12.pfb
INPUT c:/texlive/2021/texmf-dist/fonts/type1/public/amsfonts/cm/cmr10.pfb
